758522 621072
387349 419692
974900 498324
542189 366052
659252 789895
566425 200868
847584 104019
915453 872241
642522 886097
324769 112653
325353 335695
759822 744668
291155 176750
238736 82343
296076 491571
63594 28682
108673 98820
546185 683725
165755 354405
449737 174647
551973 223611
215113 184300
246443 911489
654264 725229
508118 538250
833601 897516
407727 368064
64962 365666
11863 31196
273972 908911
929735 832806
346454 186490
46016 565521
986222 390670
680706 267899
396852 649499
803035 315130
658755 59665
662780 158879
953931 127959
993304 90626
201754 556752
143739 886338
916855 891082
427192 182252
402281 425067
781568 157061
986353 291588
523609 128627
603637 510808
817514 716394
247171 766547
610150 931789
562350 559995
204363 391318
23029 71368
85415 251408
869591 100193
278854 395801
715810 713253
864698 627842
810091 129816
718002 266184
671707 356730
840750 308182
259136 724762
194027 126888
610640 241981
735847 657571
216126 537733
818441 49690
410173 944265
901478 522224
1777 169709
942728 376265
391651 44827
95727 357737
902130 112706
485586 610768
340703 307560
203411 419262
452829 261796
710432 833024
312464 10448
894889 470677
200064 628644
519388 329597
899017 55159
535889 392213
892393 476845
979745 734809
356255 834833
560484 674744
987582 202701
949903 8061
211251 30853
168287 950218
949047 562483
396749 992675
945056 673692
519005 122820
925083 949331
948072 268618
197636 784444
628302 114325
723039 801508
413356 139933
19164 384448
783991 17508
123460 985562
107044 336575
820905 96022
828648 473624
493620 126116
899267 545053
691561 56118
978315 815194
761388 366165
262198 172211
49821 276840
816915 747849
763597 862325
350157 121642
226169 55158
808546 391360
847684 509797
143947 467363
121505 282559
934264 503451
33909 843887
219605 896400
560477 916676
605938 804033
762710 240968
354130 874566
425493 121321
550336 258915
621691 597684
253879 708783
97225 268007
498161 907401
195686 13182
212651 167527
892218 909060
731668 68748
72829 955459
3610 753425
337076 253622
251022 295042
893495 681663
496812 797868
906044 205480
289914 98188
786131 176311
306349 188037
371728 100037
507075 111961
880934 65765
21582 899963
379084 551044
153688 20889
824635 60520
72039 370593
4586 489965
466924 640735
958373 220241
745425 229937
391692 907087
224720 552633
495472 920157
245569 710548
301518 328917
20952 875936
142502 49667
189639 842460
46918 667331
615240 796
350939 231401
551384 523740
774945 76068
617557 595306
712716 545714
363247 543775
820493 132490
484194 177089
795336 13332
133377 164512
101906 222504
300876 290678
441378 86757
781076 692466
244119 377505
765134 508791
500775 738671
382407 399316
547949 716698
466658 833445
183959 960871
678587 332374
154797 263668
376998 839089
999975 989995
239233 976230
392853 169434
627744 568442
985817 806923
547117 345155
542648 740550
430432 811173
832224 957062
360294 906371
469042 697285
775872 822618
469452 557395
896295 322239
721783 717215
990773 905910
323751 436272
349626 998801
431734 235402
499279 82938
850856 844856
407953 947601
764875 438895
534186 717102
284346 75688
313554 386757
272177 274374
600505 400376
92457 461993
300874 318366
982181 177668
656798 569124
873229 326286
235131 61264
645858 914560
773176 665023
301226 327046
523533 626746
100964 931059
237353 264080
576291 971405
505773 327688
389970 977867
817364 33385
210121 642124
739905 119452
920510 934208
30680 900684
152155 922477
684224 568603
259219 157660
184011 869555
642119 762532
372638 314493
285729 508862
28393 853995
829103 367061
721055 771058
122755 367706
962542 985327
407238 247786
923343 368758
699614 382072
613587 201082
138341 92734
390713 916227
233984 435813
158420 880391
345960 914902
906139 161969
137530 800706
716481 804685
265215 613113
150540 461694
648640 483258
668295 158035
598060 152833
765855 611650
490153 320990
756167 508917
50411 661457
956793 99734
473159 602504
803105 712166
276590 992446
998335 495244
448676 423346
50548 654509
405581 530458
817815 57198
994488 249286
209005 686485
64350 779494
3652 47120
129371 853823
515291 973053
984062 533282
824913 199006
87946 525499
144850 317281
143917 858917
462118 708594
569716 217513
738884 338306
794586 893427
981450 219229
91148 650544
397125 716436
716482 658472
514752 277057
18019 981155
55321 639147
784791 217254
188643 558306
588508 473580
215787 209471
312350 73704
584773 707833
161672 390372
598745 213410
795045 674283
583457 600867
796373 25173
973659 459660
553336 112624
899062 732304
669210 225090
207290 303340
301297 514125
136731 768339
241617 87278
917726 525055
5381 469401
991514 936224
624234 232696
267123 652493
484432 995901
925226 104766
796264 381203
94441 800211
136166 388223
590872 827346
682990 427651
560094 949769
576579 500917
221912 616951
541773 60038
39274 964772
318444 690977
768911 571507
582821 33664
50487 806437
52057 471585
182753 159738
629673 453683
23410 161828
65625 528054
244076 955045
623639 197471
57496 220030
367622 369567
11026 260980
91001 81943
10914 267063
525732 449599
328571 857008
530380 630219
828944 799461
735240 830427
10375 440013
125514 290235
600657 63667
342697 65233
809537 571007
639128 825702
942937 43913
756831 552007
755241 719471
287483 61600
918793 528043
92868 190258
807976 743240
253641 976612
936691 503253
730720 936877
615541 324913
878008 776662
226273 672451
685608 255292
873030 9849
333224 569961
504399 517642
643201 297971
58727 970619
180180 319739
208690 675573
208095 198331
314747 753348
152347 926482
949670 804918
568606 102620
716289 641938
34392 146929
956314 466245
818142 32376
19836 663418
985454 694807
930972 817250
804535 738702
484855 636555
283219 337407
455811 587837
757267 560239
32448 753779
333539 117115
662900 948567
911627 633191
676052 616430
731455 316489
450142 75146
450870 341442
11746 567046
809863 677068
506476 918453
452339 584277
639318 49764
622309 861380
351794 789390
602269 725483
793833 152949
979843 719372
818414 420655
992811 928866
152698 472609
438017 241148
633886 154570
383759 836634
911840 844139
155576 915736
306409 272402
660442 822617
436433 164392
15084 304752
165872 643326
819504 612587
194134 571957
567466 408308
615253 614872
695985 459364
153221 628258
132872 96271
937296 1689
834029 314720
825830 289018
763498 942495
624977 153022
851519 435414
148513 293392
213125 374508
700294 419404
67479 614080
583845 830079
939935 285261
355516 221682
694862 332917
195042 392145
313250 40841
605648 933495
172368 838634
245048 310741
141356 436122
198130 961709
666702 409430
245792 458434
621006 224722
911942 838171
741410 24131
740264 296592
762369 343620
513267 358997
625109 157279
938779 163131
528741 570503
