33902 758752
77431 543611
777969 875652
675096 769611
133066 607887
652333 447755
744127 674119
703123 214499
278671 107947
405765 806888
776093 590513
463879 707420
692308 119361
329680 952848
446086 648021
624411 530003
838762 834963
319603 9
612164 488445
956530 588607
733911 187265
68340 321822
590660 487009
131376 444475
228117 563604
160383 193020
701934 285503
423134 321985
51649 642915
31967 846188
670470 174210
685541 70615
695246 280756
720439 473750
956289 401284
331824 265275
468457 737130
730029 426040
278798 204044
856949 160937
427148 257588
915912 216942
905361 476202
93397 961113
35621 856070
125039 632010
163615 370658
876730 819624
194016 228650
440328 629240
765623 495201
515112 345821
68745 35573
83867 448969
687696 863378
126651 667415
673052 852348
56633 969515
134458 340456
726119 156446
614770 124130
272085 6600
464976 118975
572509 865055
815184 190611
139411 966502
778932 546386
929487 562199
48963 596779
465417 550127
470034 280089
916807 210670
35882 263075
762022 498146
550275 863907
46807 906634
366554 519049
375257 701443
318405 244393
312501 674563
359154 951406
176435 221000
820525 774933
238727 535470
789749 188547
141298 529878
289254 862560
435186 382088
921617 37682
977793 324563
600892 756167
155222 417807
823762 885043
335624 337833
283415 306637
339961 867412
962028 330476
792512 578514
836265 832481
400967 598189
132434 58076
748445 280135
449641 922365
209600 369545
16726 685146
769476 879826
912114 857096
25725 27329
237287 87214
388249 747775
485340 528741
766024 775309
925935 689541
839329 619317
55775 938346
163323 212027
817529 831717
333294 756826
63163 912963
803723 994251
651177 511950
768322 168077
699000 603523
846362 422249
554829 221920
59299 366070
662280 862816
499067 442350
757444 669056
277652 237890
501530 550507
921760 798882
822579 902384
288318 82639
221703 273987
959745 168916
327861 433194
772409 371096
412939 631420
123456 199819
543246 582580
942156 221728
507001 627112
762795 317608
192290 33066
50496 279181
710787 540003
749683 446939
92085 48769
856864 563411
465757 850031
768978 836026
655200 315112
272973 665356
178811 756943
586331 10775
866961 720979
811236 43286
129082 739304
425594 496242
602513 49134
827924 101265
321132 36013
896956 61454
27011 773927
305106 379327
621725 721853
906 79471
513947 695266
736198 741958
715133 92855
114093 491675
91006 592353
314605 727972
390817 363066
427840 525444
241929 836691
276068 253679
480542 207525
479977 68001
734583 158914
748584 25183
522824 366476
566378 451468
188240 912883
276930 650898
367352 336413
485778 997916
42538 10253
570521 699863
900132 424024
930768 732065
597473 491200
179097 905149
259588 911258
479977 147382
521125 520522
756187 950078
132985 997982
434043 68401
911834 181958
177451 756846
978829 104329
306813 709280
428619 183256
9461 534283
154620 252648
636753 659357
949738 447766
910443 933252
351126 165616
454507 484070
841049 154547
515503 637437
23612 528465
260055 993317
813606 542746
288427 761613
803117 567628
453838 184581
591222 102365
975196 37254
197680 786345
703716 983045
252184 389064
653986 477033
827241 131941
589754 216334
560378 629416
377204 970304
659029 978367
986813 784784
601993 459480
117885 54443
872821 651553
189700 594882
63434 213603
664435 690143
241200 659277
510434 568569
862186 958320
73930 718863
606983 442395
665265 825441
512123 29746
831961 26807
605966 121653
832606 7170
579898 512931
3738 730587
152598 740575
536004 936633
690643 827897
755636 967831
453701 996485
357722 385809
814792 351340
443942 388588
490415 109891
920468 432285
619272 271143
388839 654374
52938 773949
976096 20927
124089 822710
767096 922748
16557 436918
404621 339539
723482 182675
100658 538391
53508 9262
210334 144803
486868 357162
688114 747186
734742 946109
19754 992745
617453 795144
377740 113732
378656 372254
659490 236433
787907 152559
