440201 14230
902229 299918
393477 760806
403906 676729
527460 865577
98870 741689
196089 84946
384664 150596
447494 707959
503798 546514
413325 362223
826846 515306
141837 277005
737131 597681
324125 590306
206424 773302
896466 396711
915756 721554
431147 72336
23370 710250
930976 970308
103471 63467
941841 748532
946379 59997
589501 366695
110928 662916
937276 465155
849102 4187
680742 539682
161890 11633
680522 996492
914187 472374
524846 722189
340239 928760
181571 846383
546573 981336
129438 747860
864940 612475
205070 823377
561971 333694
974568 940511
979547 421155
733494 188589
839091 823429
191662 392179
944535 127205
92744 921053
744995 554554
612192 81196
628742 546269
697995 281995
685020 728710
98751 993868
820283 478196
917856 264
517234 813316
681768 645635
811583 111459
71175 819844
287087 296955
331611 607391
652442 287232
360076 829159
497454 565458
491545 654737
735462 950867
877220 955264
90824 107931
769944 75743
822164 281841
313629 831592
228397 949396
420572 545351
754306 150960
951479 106694
98541 760740
42611 51270
45107 934799
546932 671786
988516 242854
231005 268770
7877 221889
964656 627880
271623 37789
535581 733356
104077 418631
87444 619065
357088 679555
994356 818934
709528 174691
396873 350045
25147 159964
397986 507202
434629 333496
511155 821009
511402 425938
821942 400233
328033 599810
989641 746289
792016 831063
993221 725668
38085 120710
35531 161499
129036 289987
37562 231110
677433 392442
107689 712907
376119 126927
409709 941147
899183 612679
587775 745902
317342 806120
704208 688924
244361 815985
290950 828515
884883 504966
193776 100921
420137 582501
86529 743913
560886 7535
676964 926186
336612 66798
656535 418835
271335 502230
837069 361607
300301 616955
963042 902829
500062 293461
581436 567672
644700 279162
316349 910979
319991 344372
318270 702335
222885 699752
41893 989161
604384 540912
120342 337937
585927 445864
543335 85582
269850 494172
220976 606775
953410 680713
802638 806646
683849 380665
638576 564013
516611 97634
736011 996981
901805 656524
109364 313612
324987 674524
715972 65210
356115 737951
724810 935922
186117 460843
474813 898892
388395 442838
743632 389672
729594 73112
237549 1836
430760 201580
829098 496727
280990 806058
593873 844269
429392 700927
821773 747478
246493 259970
729235 170018
442973 776967
974478 531801
587235 91256
845053 233066
38095 783225
949280 163141
545902 459470
778533 7514
481997 660037
773464 138270
777137 458521
613456 724804
203307 25801
671352 760030
185082 116809
398104 176414
616182 944928
722753 654941
410243 454
188204 729648
133223 582631
287140 151348
328313 919681
952078 698822
581985 824658
135152 88703
401045 34589
722099 467043
469057 77964
327950 92270
738243 273321
612470 600364
22176 226248
397559 21103
772921 389133
547112 395933
644976 95638
870540 769181
907199 420868
331414 441621
341296 609188
987086 942823
110867 794698
618754 965969
438531 499972
374371 121816
715292 294023
997255 418079
550762 364081
447130 947227
317926 638130
552458 950648
873097 541982
918591 556616
490081 287148
464479 900819
972057 103688
448432 916020
245802 859852
364404 550123
219948 326376
81346 593492
623662 858118
487296 140786
380361 841346
896575 915751
849842 349160
341449 449641
135875 695973
279353 813435
177770 62425
768540 608018
949457 477072
178579 475965
724063 787221
248464 695365
388369 829934
916061 573419
131641 370279
982169 336091
104139 130114
947952 215285
607554 947220
8582 507496
185651 696684
512640 155980
