559420 98168
409336 858244
891237 912878
869756 886663
457804 153794
825414 76511
6888 760346
619084 249910
811913 584969
625165 150528
342357 459565
10111 706506
428902 229417
168157 687405
611730 584884
77216 13007
879461 729458
25142 444055
302932 564335
401985 724548
432941 939298
70556 680554
242564 663681
566105 781144
969835 718814
616114 791088
292658 998159
984405 242641
669463 893661
167122 728084
142309 774877
349902 93239
429993 354154
403094 719662
212175 789309
815076 150323
25053 895580
742620 768569
606708 871691
424494 121983
441611 699149
705639 972992
343530 620717
151165 474621
751713 810144
484949 211730
834093 500578
440706 835776
241654 185528
824545 962954
690229 809129
977125 810485
685245 320879
100226 59551
79334 876370
983828 590175
772107 424148
482618 414853
223734 438893
681584 625918
602455 773705
422422 65613
978324 506503
317614 313691
996847 727332
765158 451669
590204 675063
205624 9472
429289 123959
302832 953239
130925 578537
112475 394107
837397 732950
997158 729708
193775 910237
21316 863107
831125 950424
954468 129401
729443 574556
260870 102586
723317 200239
63209 106418
206433 447925
686262 523694
599603 262762
4676 394157
840985 19773
15424 61361
513043 453059
202304 425881
720357 446537
53994 377537
49657 398932
607388 578730
755648 259467
462523 894990
744600 930527
794980 899188
256334 623074
865328 57103
723819 313058
215613 41457
500717 121297
373087 96949
90849 642889
730757 842376
351201 201649
903337 650211
520491 463365
80794 174528
947310 341696
924815 727392
13347 911201
922531 225224
582345 85387
16694 859441
335036 146078
995423 463975
479177 583875
934391 173291
603975 11973
318790 745052
873442 383560
577569 180906
183237 962043
17008 511911
116535 783645
706356 746885
443189 441189
325368 544801
782547 567019
486206 794370
951073 923052
66036 371743
416298 828689
868754 730635
495663 363913
283267 980290
775673 591463
93736 420563
424308 244889
292807 382918
581270 400050
738340 845960
870502 414366
403063 946110
749825 924572
322373 930983
601697 126006
275478 683931
895794 331683
189405 688279
364434 229906
998149 574371
154930 687498
116898 309807
927342 246063
820265 677444
517702 833714
290436 401681
122196 915731
876196 77284
354280 771965
556004 952300
646046 639586
827611 584569
486339 403058
31163 615389
91859 353659
248881 149059
854523 371397
6485 341416
49200 806727
287919 246469
352634 106411
742416 138509
545207 714771
685332 848412
389990 260252
785950 963236
315761 162307
338442 176934
948181 835319
556720 219121
963987 102263
783866 591219
746075 406788
578531 985712
934209 809175
180863 811325
657015 207603
361953 762741
286720 686630
872826 431813
351177 17558
78560 936204
670308 31390
639189 437706
892787 87223
729634 563049
747166 818065
472042 20861
731392 512647
223950 437972
688746 506252
