134022 886651
772492 353949
72704 766882
89000 350216
917931 508421
603071 424566
110335 848271
457328 688270
887514 19733
599226 709368
19369 130461
415015 583222
259803 598050
340986 152105
606686 894513
940527 707529
687514 715558
622449 842757
790073 896627
905417 615594
41047 657216
940516 172949
868777 518184
209945 817687
655737 99026
488962 848580
529141 802377
544104 59784
246350 12749
860616 35622
285230 124228
132497 303430
323810 607226
9280 889567
654627 402433
540815 166145
776594 542953
365027 200996
807957 677086
158030 636738
929313 375881
50934 679250
186171 995903
576544 929533
549763 532996
448709 8517
880675 710618
696113 72357
823369 873080
704134 409964
735876 574661
774325 233497
677282 976628
456529 906305
699525 46166
155399 993533
278372 586027
129422 18633
51030 500264
916750 321700
350364 750002
964816 434531
273065 394193
415226 493220
796445 26905
435130 973358
107513 766944
840591 88304
201896 396381
655010 616014
705203 251316
855325 894837
697992 347780
711431 737964
410943 416178
518973 474863
869857 453067
379028 800646
495009 481499
689591 227181
738883 437103
996693 830182
218726 652426
750185 109127
76386 859826
562743 334555
940813 398842
243837 713335
518408 938120
167973 885297
249997 131357
37082 829059
566333 638181
943595 433410
674431 534662
955420 726367
116458 706124
876958 764063
576551 187814
132310 218236
807365 264213
622308 73917
676441 528469
2370 624077
760117 144024
773827 232087
156944 169430
995426 376841
733815 138663
224205 417174
887739 148953
967527 48355
82619 958681
467560 436661
182555 535473
565921 346825
31107 792428
818947 912945
173813 888397
405511 18031
217747 224338
422355 463230
2705 750913
185254 530543
475818 338654
322190 749247
792046 488965
683900 517068
668309 474937
213027 820254
615724 224364
859415 232071
912656 997986
989702 129766
718293 880461
219727 781920
524931 271570
998268 681654
522982 120067
928040 979790
468040 650113
431657 766455
593537 728765
233875 602355
644833 469936
742975 186439
627765 463071
719705 284117
531859 405692
61850 95292
86356 957600
120859 509904
957675 557712
693055 723610
779705 144966
737047 572582
978275 366557
257109 118153
363267 19202
991751 124388
912504 851568
653475 735674
697756 397602
875477 254404
969434 763614
806224 393800
121769 473024
719860 823389
906004 994835
989350 661702
919565 271157
747638 910134
408688 651003
869750 571185
680986 954443
460562 862795
621285 656367
434122 269358
402901 805897
629492 31522
888254 442594
271848 382171
403042 80021
616013 75391
786155 470012
626374 192876
751533 995840
828537 789061
345732 837869
924190 921629
648238 69573
606285 92552
465589 240148
146138 121364
67366 18262
127081 746304
455753 124348
545015 71450
670518 687616
812802 219925
683736 202126
649444 320452
781646 174646
99963 579176
623486 307247
794739 510501
855892 356149
