737512 373287 509
950536 167028 525
140728 671000 509
470067 787003 509
405251 643505 509
995002 212758 525
621030 826993 509
394215 708686 509
21454 359635 443
907371 252217 525
155457 534116 470
267760 279599 407
284438 222562 443
970840 261476 525
427107 649615 509
810036 26235 509
336289 657511 509
261761 672408 509
346913 848940 525
587647 10604 470
321798 696785 509
816192 849265 525
823175 983439 525
54218 4722 340
400609 153402 443
204960 916432 525
765649 500097 509
968670 311184 525
896057 216941 525
283424 430459 449
560191 176726 470
945010 31776 525
994930 599444 525
684197 396226 509
975626 279388 525
928593 467613 525
388431 792227 509
804774 969285 525
361956 593901 470
18839 851607 525
850354 664929 525
141706 322965 443
879466 855576 432
181258 479121 449
297778 358956 441
277266 20961 443
933318 240190 525
624749 936797 525
681120 204846 509
252849 588365 470
180087 925912 525
487470 918679 525
664979 12242 509
12757 584037 470
871898 286243 525
221008 100031 386
546268 576952 452
676281 482065 509
883922 329008 525
152923 808329 509
48594 823971 509
533 908690 525
349834 966683 525
439831 402339 449
496257 270930 449
775209 148358 509
608544 202394 470
793628 707057 468
991614 516259 525
456232 655447 509
766154 898484 525
736668 772226 468
100111 427490 449
66703 389612 443
664690 377649 509
578365 935102 525
837783 552279 509
97771 922828 525
673252 526686 509
25244 111690 354
414593 316801 449
654010 285409 509
229294 735695 509
69231 40227 340
296836 721954 509
236131 122182 443
350971 995805 525
846919 912189 476
452950 265153 449
1285 661832 509
22176 541947 470
246357 388797 441
716332 256398 509
634861 275176 509
985413 120639 525
449274 965156 525
488488 634370 509
323099 755715 509
56782 724630 509
489586 58950 449
658525 470419 509
692745 555960 509
935458 473353 525
546131 980195 525
544227 551319 452
637979 822810 504
853211 230645 525
355640 296141 441
406622 412505 449
517984 35897 470
278338 382664 441
622386 568497 447
706045 657254 504
187589 733504 509
605533 968513 525
212802 705776 509
754737 225575 509
802197 43211 509
238685 299094 407
314666 121842 443
481429 903178 525
115655 61238 354
359593 491726 449
56566 848554 525
398894 497104 449
180542 519949 470
943442 307761 525
304868 642843 509
535727 595784 452
419795 525594 470
976530 911615 507
732642 958591 525
983700 561731 525
390636 594502 470
375824 85739 443
849830 779286 525
599486 491195 470
808955 510174 509
43299 610848 470
913314 533397 525
749433 585019 509
699657 646582 442
475525 447282 444
614424 833644 509
524094 357322 470
725788 694134 504
904006 51108 525
362310 260268 441
966363 163722 525
32409 183192 383
582498 58348 470
671094 235318 509
126940 817307 509
924690 443593 525
21056 326652 443
567295 960687 525
910095 963966 507
689281 241757 509
500170 132747 449
591387 409718 470
750163 85432 509
55599 686081 509
204178 147156 383
103204 645803 509
122832 145708 375
603772 523329 452
362718 740627 509
848801 654869 525
44089 686479 509
572079 490978 470
324790 108144 443
211868 791747 509
533584 588062 452
199179 304444 443
434570 871004 525
397287 397227 299
454779 575764 470
918585 847143 476
489160 761993 509
576032 556516 421
623750 369843 470
691278 107087 509
191882 686431 509
827132 914037 525
631621 9720 509
995022 904752 507
740583 266961 509
560607 882894 525
112424 750780 509
193472 519418 470
92922 190295 383
51501 313890 443
638935 905726 525
322127 801085 509
628356 783422 504
676748 601140 509
375317 337663 441
677964 67381 509
800739 822498 450
869909 450766 525
148610 700761 509
415480 457405 418
648386 909052 525
919689 39679 525
126834 600357 470
768040 603936 509
469725 331196 449
240506 499388 449
95358 146756 375
618565 878310 525
549167 895239 525
161423 59207 383
591519 560805 434
7724 484535 449
383867 78518 443
768138 374593 509
973601 888537 507
98854 886218 525
753891 390094 509
669206 553188 509
876679 873092 432
975129 9550 525
525387 547741 452
926501 810180 525
443441 597267 470
880976 864461 432
626428 301067 509
779160 932527 525
512011 952167 525
150688 6115 375
394989 463049 449
694982 439723 509
934124 899070 476
201229 308246 443
19346 165688 383
469133 547690 470
703986 327625 509
280650 256241 407
590840 12389 470
621812 702216 509
839468 66731 525
420393 548726 470
927295 825498 525
561944 108819 470
315064 399439 441
906681 991827 507
104713 949994 525
114343 946247 525
189267 711400 509
