7242 95288
28198 33465
23010 58506
6443 84817
28244 6623
10314 536
27931 21707
12622 66104
28524 24478
18511 13720
17331 69399
707 71790
9086 29619
20825 80856
2677 36508
18654 51825
19400 18993
26525 43718
18703 50334
6006 29617
9389 92877
20061 17759
12667 65101
1169 61840
23422 21712
7336 87447
13669 15818
1024 46722
28033 45488
28346 96541
9746 71606
26918 94765
23872 32136
28773 14522
21446 68078
19457 35810
14777 6581
25341 23001
28489 84478
16254 2412
17814 96436
11068 27090
1541 25108
6916 16049
2968 52430
22784 32645
678 60373
7754 71374
14345 12327
931 7858
6191 7825
19910 81566
21468 88673
22769 30095
21668 10725
19673 88277
28399 20700
3987 99684
13533 21253
24675 20087
4111 14205
7980 39392
8142 32593
25748 36861
4005 55991
10880 8638
7865 48910
9042 83852
1539 27870
196 35220
21486 78858
8082 14821
14892 50515
21975 25595
23622 58043
23337 69683
15946 46069
21233 83865
17873 30757
6466 98609
26662 84482
9740 86110
16460 32474
8844 24451
16450 96244
11798 69068
22329 38201
13699 31871
11495 40908
21448 97318
1062 3317
4630 55941
18726 40589
19693 32969
14271 80431
11205 72400
5792 14593
16679 41330
7541 98201
13315 92474
24661 83301
23432 17160
16082 46634
158 71328
6797 73150
19696 50727
9609 67946
8290 39683
17979 11233
23094 38526
21862 7281
19641 44247
13932 66023
21377 12465
29045 24160
12055 14542
13608 48664
28721 93258
17605 44792
28174 3034
25726 84208
9813 66132
24329 67995
24488 97343
1851 21583
24358 91316
172 25364
10398 87852
2826 84604
18698 79960
10533 7002
13207 78028
27947 4707
14275 67235
5078 51052
9451 76668
25280 12264
5843 45239
1263 31690
748 89928
21814 16315
22999 76128
28602 27665
20614 92995
25137 37701
8482 56986
7204 34046
14951 9656
14043 37486
10925 19593
23623 49975
16594 6867
5223 23999
25277 95701
11661 58436
18263 78273
15854 32967
26701 84925
10618 70466
6160 72591
3521 83769
21960 84794
175 84115
19441 61147
11081 84925
11928 79101
24320 97505
19506 35505
26892 19340
23720 22463
11946 32870
8991 48439
14657 3505
4831 24476
23518 95692
11367 65039
13008 85620
24960 52604
23480 45641
25817 6134
26063 24957
28270 41452
19616 27307
7018 86889
8535 54839
14899 78857
802 21860
12350 22169
27109 22800
4884 21320
842 15351
4427 1644
18599 98395
17147 10860
7921 41158
16152 79230
5614 2878
10176 23465
9640 65742
456 38176
21104 69381
29035 97337
11318 26562
21235 15156
21914 20528
21258 17169
25509 64273
8006 75608
9491 30726
6081 15789
27574 72921
685 91600
23691 65827
10496 49314
21623 50970
29108 32369
1599 87578
16055 92575
16976 10195
9387 83659
