124320 34198
980434 708059
743759 162233
134046 765158
655945 511512
390743 149077
812928 281853
143817 640638
758581 866527
283192 693656
37965 766765
918450 818963
127493 124919
164684 510653
373402 474865
909216 300313
922037 273001
789985 422421
87890 431941
705817 471626
850938 572531
285394 15971
487818 281075
760283 74194
382908 685050
590327 209743
915394 372939
233039 232456
734502 880489
153827 419418
881448 295433
34624 753461
788953 502843
841635 70984
650136 52127
521499 622876
458148 326370
939948 66307
80262 120061
549878 497189
135298 535296
759844 302448
269353 950151
848777 676527
558257 841355
645883 885232
955139 228304
932668 503104
585480 370707
726524 324467
523333 98739
575495 884592
736224 434032
625818 664871
830514 342253
309563 857225
315884 627824
581531 422248
36362 421622
276256 879340
260723 545752
472503 967628
185247 546074
280690 299333
511112 634094
927455 742434
677812 89309
108875 804127
768078 978751
820205 586771
919475 744032
408436 961729
540680 924633
261316 979336
831724 396151
127447 857374
144538 519992
622817 998610
715134 513283
974056 932999
213325 621605
480810 457856
825003 794844
329164 225687
59533 805087
290304 865260
915867 30660
409030 406318
979648 568748
586496 462457
42287 657962
564809 371584
59946 491558
769146 766311
397130 782138
591210 653706
954287 29780
231080 90896
273795 38900
258745 431860
299396 166982
901720 548640
407754 488342
479028 825838
956264 540939
723849 454409
610143 941221
973881 706520
765023 674837
95832 471427
392542 110635
300361 326581
258222 973707
860351 217424
356455 253745
727523 509654
426595 384778
599816 328998
527640 718606
504292 957216
731091 288991
50901 371792
861403 551589
722096 603044
312301 759999
689652 239312
947039 329812
296752 227231
526410 79856
261297 643687
810750 955471
920946 441072
372476 321665
449351 792906
976726 678483
898196 773253
67337 417789
19589 979634
668121 563653
437239 454467
132625 425138
103265 323206
174834 57936
152381 794038
904550 754535
155886 956890
736631 242571
61716 841042
120273 438331
519747 953611
831266 396777
67284 79634
845389 568913
743018 771092
37643 961990
820775 148059
901489 900586
911100 5596
756566 966027
599651 680830
980901 418153
430954 595976
283437 537962
147168 28053
368366 987556
437514 490391
632119 835240
546828 383592
481041 568085
549027 687736
266249 353805
887056 470923
302751 185088
492652 576226
73418 322349
201623 137299
12283 574159
398506 185388
876729 343219
914493 716568
521957 342138
673937 589607
470764 150780
822705 882419
854471 881786
806335 106554
313776 144290
958668 518842
25192 517254
478000 462934
81661 67231
78135 311788
539371 89917
810732 400225
701164 891101
117144 543541
529877 87676
340436 361593
281485 404787
74620 492360
743485 136726
502068 164571
43231 564862
495419 360882
881611 657582
5150 676885
715152 304486
612435 107801
858663 460406
243004 890936
203442 827254
911174 955023
132530 736539
48386 617220
70136 42958
430589 520694
252661 801635
63968 867808
579984 324201
956789 110491
980431 502460
948915 658238
147624 352772
42590 333211
613891 407533
664541 188406
102731 191523
970497 403132
893070 384130
998828 679528
14980 824236
209496 455347
526824 755625
516269 422795
974408 894416
31106 952816
407037 320392
691661 844746
13203 472560
888034 742006
128437 128109
662562 306259
858345 634993
771620 483654
515339 430344
492690 676391
328719 413210
330036 700036
820788 658145
276185 998505
677633 98619
544633 19005
241589 599607
870562 442743
546150 582069
2897 127904
607379 795108
901962 989625
371484 877376
299988 977981
767914 776598
32667 105229
738348 130068
845251 378358
234100 967277
730721 23777
560992 350592
67348 931811
656737 548546
652926 374145
97187 457436
843348 877815
40383 562003
