293896 665652 509
981080 771400 525
289910 193993 443
601933 40611 470
846971 767994 525
496989 851324 525
56010 627061 509
622390 294795 470
350198 370235 410
447144 961201 525
590211 271701 470
733431 938518 525
656597 729826 504
783298 720748 468
286048 811160 509
974708 983469 427
293087 533912 470
188849 867422 525
984416 976812 427
206126 259561 443
73698 813130 509
668944 95252 509
823922 524179 509
857460 788446 525
146359 972772 525
319681 123974 443
497149 622849 470
513125 199618 470
530812 360602 470
980652 653782 525
465746 584367 470
497605 984947 525
498310 614678 470
659668 49028 509
50013 828951 509
765312 658822 504
967947 910314 507
122468 966820 525
570225 88969 470
401159 279423 441
10823 304394 443
992425 498866 525
451964 15470 449
787508 5588 509
584909 905933 525
257672 282533 407
508981 796146 509
143447 692689 509
74804 971523 525
836217 621025 509
859280 552995 525
772909 848146 525
957665 948307 414
987956 580239 525
934910 731497 525
27653 861591 525
223773 827480 509
986256 240130 525
415630 351699 449
414169 215141 449
663122 751184 504
422760 755391 509
975937 715530 525
306292 293094 371
176949 358055 443
754312 325201 509
530393 394243 470
137403 992716 525
292107 606816 470
759218 842030 525
175054 142593 383
654037 539802 509
481414 416659 444
892815 55525 525
606954 408889 470
994286 989355 352
120163 734159 509
870751 245852 525
25976 117688 354
525184 649840 509
877803 103061 525
181380 21291 383
810129 688234 504
551607 260502 470
931465 401986 525
713797 313293 509
194968 785717 509
916137 75969 525
946000 550438 525
64869 947966 525
124571 162809 383
150283 222246 386
199061 859305 525
572965 378212 470
540039 644364 509
644244 343579 509
240194 95231 443
274479 255980 407
466365 179392 449
307698 105442 443
667326 922015 525
966514 562771 525
109559 650503 509
557489 239625 470
490465 690517 509
860349 144413 525
781558 318258 509
567754 346026 470
203031 921770 525
768911 495982 509
88111 461917 449
406011 343611 441
363057 204615 443
430515 440138 400
528235 137783 470
586884 192458 470
114242 993872 525
471206 745336 509
133494 125415 344
709906 877461 525
197125 338008 443
495912 831035 509
142590 927355 525
334891 297434 384
187975 190305 360
849067 38592 525
571739 454751 470
820149 87887 509
912903 324929 525
134279 926280 525
11210 729493 509
581714 197240 470
155984 719295 509
699991 610623 509
102678 206899 383
288245 768847 509
444408 286961 449
160562 895054 525
245283 130240 443
786689 990649 525
106989 851621 525
394904 560786 470
628842 661206 429
188263 219615 386
579322 474052 470
875092 642570 525
590184 130286 470
822438 805325 450
64687 65842 268
310856 496120 449
320247 771616 509
517720 865628 525
705441 147897 509
510094 391505 449
913158 113328 525
428937 86318 449
739641 477065 509
318295 79570 443
592865 732476 509
647220 234195 509
658302 739572 504
86329 518557 470
495997 540637 470
266547 873652 525
979368 33606 525
145358 768188 509
592378 133470 470
431253 572157 470
344099 485698 449
479099 881422 525
244513 836634 509
815540 174330 509
632834 591516 509
468325 79801 449
257866 619198 470
28527 900972 525
441101 966677 525
904483 787150 525
956671 6367 525
737157 219527 509
61159 769937 509
200591 182161 360
398074 393341 405
784368 384150 509
577505 984193 525
669545 551467 509
755794 720943 424
183887 160313 370
348420 907346 525
516486 719542 509
796094 70089 509
681923 861326 525
821254 22650 509
560997 815194 509
805357 889550 525
775526 96285 509
920167 150309 525
978148 240359 525
929334 925024 476
770970 431667 509
787700 491467 509
371037 669224 509
218957 90982 386
409529 893095 525
116178 157792 383
518924 112524 470
890475 494504 525
56673 618233 470
865294 148059 525
238426 766788 509
101926 808069 509
467662 408193 449
197275 841761 525
291030 282123 389
223140 861796 525
839832 437760 525
301296 494503 449
423482 150609 449
939412 779484 525
669866 851488 525
893430 356263 525
709890 768024 468
528394 847768 525
292400 285568 389
280796 426820 449
447742 139767 449
859344 478677 525
14151 55076 340
729507 885327 525
291729 819348 509
157637 653052 509
510162 598645 470
666832 510499 509
118800 23135 354
335395 979634 525
654720 192046 509
723041 559907 509
293600 11845 443
430872 765626 509
487466 533536 470
558779 712460 509
537567 161269 470
676528 325859 509
612115 193123 470
132622 111364 349
133636 693366 509
752055 932375 525
969073 486872 525
993892 863858 507
67974 812044 509
641667 172274 509
183309 520955 470
92370 765981 509
357886 542178 470
751177 387610 509
369953 754299 509
968985 421028 525
295027 746603 509
450878 989997 525
732662 201441 509
197066 660683 509
15707 303593 443
763364 415048 509
391285 220638 443
649198 635637 416
425750 368831 449
348365 501329 449
360018 312534 441
577004 520324 452
198802 297648 443
57127 816568 509
675675 293945 509
238916 956303 525
771611 204950 509
242351 587133 470
892164 49928 525
41063 305376 443
